Calculate library PCR concentrations — pcr_lib_calc • amplify
…
standard_diff The difference between the ct_mean of a standard and one step up in the dilution (ie more concentrated, lower Ct). The most concentrated dilution has a value of 0

dil 2^(standard_diff). The accuracy of this metric assumes that the efficiency of the PCR is 100%, which is likely good but not perfect!. In the case of the first standard, dil = 0

quant_actual For standards, the presumed quantity of standard, calculated from dil. For samples, quantity

concentration The concentration of library, before dilution

    Examples

system.file("extdata", "untidy-standard-curve.xlsx", package = "amplify") |>
  pcr_tidy(pad_zero = TRUE) |>
  pcr_lib_calc()

#> # A tibble: 58 × 35
#> # Groups:   task [3]
#>    omit  sample_name target_name task     reporter quencher ct_mean  ct_sd
#>    <lgl> <chr>       <chr>       <chr>    <chr>    <chr>      <dbl>  <dbl>
#>  1 FALSE Standard 01 Target 1    STANDARD FAM      NFQ-MGB     15.4 0.0726
#>  2 FALSE Standard 01 Target 1    STANDARD FAM      NFQ-MGB     15.4 0.0726
#>  3 FALSE Standard 01 Target 1    STANDARD FAM      NFQ-MGB     15.4 0.0726
#>  4 FALSE Sample 06   Target 1    UNKNOWN  FAM      NFQ-MGB     17.1 0.0677
#>  5 FALSE Sample 06   Target 1    UNKNOWN  FAM      NFQ-MGB     17.1 0.0677
#>  6 FALSE Sample 06   Target 1    UNKNOWN  FAM      NFQ-MGB     17.1 0.0677
#>  7 FALSE Sample 12   Target 1    UNKNOWN  FAM      NFQ-MGB     17.3 0.0286
#>  8 FALSE Sample 12   Target 1    UNKNOWN  FAM      NFQ-MGB     17.3 0.0286
#>  9 FALSE Sample 12   Target 1    UNKNOWN  FAM      NFQ-MGB     17.3 0.0286
#> 10 FALSE Sample 04   Target 1    UNKNOWN  FAM      NFQ-MGB     17.4 0.110 
#> # … with 48 more rows, and 27 more variables: quantity_mean <dbl>,
#> #   quantity_sd <dbl>, automatic_ct_threshold <lgl>, ct_threshold <dbl>,
#> #   automatic_baseline <lgl>, baseline_start <dbl>, baseline_end <dbl>,
#> #   comments <chr>, y_intercept <dbl>, r2 <dbl>, slope <dbl>, efficiency <dbl>,
#> #   positions <dbl>, name <chr>, usr_quantity <dbl>, plate_type <chr>,
#> #   exp_type <chr>, well <chr>, well_position <chr>, ct <dbl>, quantity <dbl>,
#> #   well_row <dbl>, well_col <dbl>, standard_diff <dbl>, dil <dbl>, …
…
