Create a report from a PCR plan — pcr_plan_report • amplify
…
#> # A tibble: 8 × 7
#>   sample       conc dilution_factor diluted_concent… diluted_rna_to_… water_to_add
#>   <chr>       <dbl>           <int>            <dbl>            <dbl>        <dbl>
#> 1 24hr_DMSO_1 127.                1            127.              1.18         28.8
#> 2 48hr_DMSO_1  93                 1             93               1.61         28.4
#> 3 24hr_1uM_1  143.                1            143.              1.05         29.0
#> 4 48hr_1uM_1   67.1               1             67.1             2.24         27.8
#> 5 24hr_DMSO_2  88.3               1             88.3             1.70         28.3
#> 6 48hr_DMSO_2 124.                1            124.              1.21         28.8
#> 7 24hr_1uM_2   94.2               1             94.2             1.59         28.4
#> 8 48hr_1uM_2   80.2               1             80.2             1.87         28.1
#> # … with 1 more variable: final_vol <dbl>
#> 
#> $plate
#> # A tibble: 384 × 10
#> # Groups:   primer [4]
#>    primer sample col   row   lane_v lane_h available_well sample_name
#>    <fct>  <fct>  <fct> <fct>  <int>  <int> <lgl>          <chr>      
#>  1 1      1      2     b          1      1 TRUE           NA         
#>  2 1      1      3     b          1      1 TRUE           24hr_DMSO_1
#>  3 1      1      4     b          1      1 TRUE           NA         
#>  4 1      2      2     c          1      1 TRUE           NA         
#>  5 1      2      3     c          1      1 TRUE           48hr_DMSO_1
#>  6 1      2      4     c          1      1 TRUE           NA         
#>  7 1      3      2     d          1      1 TRUE           NA         
#>  8 1      3      3     d          1      1 TRUE           24hr_1uM_1 
#>  9 1      3      4     d          1      1 TRUE           NA         
#> 10 1      4      2     e          1      1 TRUE           NA         
#> # … with 374 more rows, and 2 more variables: plotting_name <chr>,
#> #   primer_name <chr>
…
