Analyzing ddCt qPCR with amplify • amplify
…
#>   CT = col_character(),
#>   `Delta Ct` = col_logical(),
#>   `Automatic Ct Threshold` = col_logical(),
#>   `Automatic Baseline` = col_logical(),
#>   Comments = col_logical(),
#>   EXPFAIL = col_character(),
#>   HIGHSD = col_character(),
#>   NOAMP = col_character(),
#>   THOLDFAIL = col_character()
#> )
#> ℹ Use `spec()` for the full column specifications.
#> ! Multiple files in zip: reading ''[Content_Types].xml''
#> Object is not tidy - tidying.
dat
#> # A tibble: 384 × 41
#>     .row  .col  well well_position omit  sample_name target_name task   reporter
#>    <dbl> <dbl> <dbl> <chr>         <lgl> <chr>       <chr>       <chr>  <chr>   
#>  1     1     1    NA NA            NA    NA          NA          NA     NA      
#>  2     1     2     2 A2            FALSE UC3 PBS     CDH1        UNKNO… FAM     
#>  3     1     3     3 A3            FALSE UC3 PBS     CDH1        UNKNO… FAM     
#>  4     1     4     4 A4            FALSE UC3 Drug    CDH1        UNKNO… FAM     
#>  5     1     5     5 A5            FALSE UC3 Drug    CDH1        UNKNO… FAM     
#>  6     1     6     6 A6            FALSE UC3 Drug    CDH1        UNKNO… FAM     
#>  7     1     7     7 A7            FALSE T24 PBS     CDH1        UNKNO… FAM     
#>  8     1     8     8 A8            FALSE T24 PBS     CDH1        UNKNO… FAM     
#>  9     1     9     9 A9            FALSE T24 PBS     CDH1        UNKNO… FAM     
#> 10     1    10    10 A10           FALSE T24 Drug    CDH1        UNKNO… FAM     
#> # ℹ 374 more rows
#> # ℹ 32 more variables: quencher <chr>, quantity <lgl>, quantity_mean <lgl>,
#> #   quantity_sd <lgl>, rq <dbl>, rq_min <dbl>, rq_max <dbl>, ct <dbl>,
#> #   ct_mean <dbl>, ct_sd <dbl>, delta_ct <lgl>, delta_ct_mean <dbl>,
#> #   delta_ct_sd <dbl>, delta_ct_se <dbl>, delta_delta_ct <dbl>,
#> #   automatic_ct_threshold <lgl>, ct_threshold <dbl>, automatic_baseline <lgl>,
#> #   baseline_start <dbl>, baseline_end <dbl>, comments <lgl>, expfail <chr>, …

The typical format of PCR data is woefully non-rectangular.
amplify fixes this by skipping to the good bits, but also
pulling out useful metadata supplied in the header and footer of the
dataset - like the last few columns:

select(dat, analysis_type:reference_sample)
#> # A tibble: 384 × 4
#>    analysis_type endogenous_control rq_min_max_confidence_level reference_sample
#>    <chr>         <chr>              <chr>                       <chr>           
#>  1 Singleplex    PPIA               95.0                        RT112 Drug      
#>  2 Singleplex    PPIA               95.0                        RT112 Drug      
#>  3 Singleplex    PPIA               95.0                        RT112 Drug      
#>  4 Singleplex    PPIA               95.0                        RT112 Drug      
#>  5 Singleplex    PPIA               95.0                        RT112 Drug      
#>  6 Singleplex    PPIA               95.0                        RT112 Drug      
#>  7 Singleplex    PPIA               95.0                        RT112 Drug      
#>  8 Singleplex    PPIA               95.0                        RT112 Drug      
#>  9 Singleplex    PPIA               95.0                        RT112 Drug      
#> 10 Singleplex    PPIA               95.0                        RT112 Drug      
#> # ℹ 374 more rows
…
