Performing Library Quantification QC • amplify
…
# scrub - from {mop} - turns an object into a data.frame
scrub(tidy_lib)
#> # A tibble: 96 × 32
#>     .row  .col  well well_position omit  sample_name target_name task   reporter
#>    <dbl> <dbl> <dbl> <chr>         <lgl> <chr>       <chr>       <chr>  <chr>   
#>  1     1     1     1 A1            FALSE Standard 01 Target 1    STAND… FAM     
#>  2     1     2     2 A2            FALSE Standard 01 Target 1    STAND… FAM     
#>  3     1     3     3 A3            FALSE Standard 01 Target 1    STAND… FAM     
#>  4     1     4    NA NA            NA    NA          NA          NA     NA      
#>  5     1     5     5 A5            FALSE Sample 01   Target 1    UNKNO… FAM     
#>  6     1     6     6 A6            FALSE Sample 01   Target 1    UNKNO… FAM     
#>  7     1     7    NA NA            NA    NA          NA          NA     NA      
#>  8     1     8     8 A8            FALSE Sample 09   Target 1    UNKNO… FAM     
#>  9     1     9     9 A9            FALSE Sample 09   Target 1    UNKNO… FAM     
#> 10     1    10    NA NA            NA    NA          NA          NA     NA      
#> # ℹ 86 more rows
#> # ℹ 23 more variables: quencher <chr>, ct <dbl>, ct_mean <dbl>, ct_sd <dbl>,
#> #   quantity <dbl>, quantity_mean <dbl>, quantity_sd <dbl>,
#> #   automatic_ct_threshold <lgl>, ct_threshold <dbl>, automatic_baseline <lgl>,
#> #   baseline_start <dbl>, baseline_end <dbl>, comments <lgl>,
#> #   y_intercept <dbl>, r_superscript_2 <dbl>, slope <dbl>, efficiency <dbl>,
#> #   positions <dbl>, name <chr>, usr_quantity <dbl>, date <date>, …
…
scrub(custom_lib)
#> # A tibble: 96 × 32
#>     .row  .col  well well_position omit  sample_name target_name task   reporter
#>    <dbl> <dbl> <dbl> <chr>         <lgl> <chr>       <chr>       <chr>  <chr>   
#>  1     1     1     1 A1            FALSE Standard 01 Target 1    STAND… FAM     
#>  2     1     2     2 A2            FALSE Standard 01 Target 1    STAND… FAM     
#>  3     1     3     3 A3            FALSE Standard 01 Target 1    STAND… FAM     
#>  4     1     4    NA NA            NA    NA          NA          NA     NA      
#>  5     1     5     5 A5            FALSE Sample 01   Target 1    UNKNO… FAM     
#>  6     1     6     6 A6            FALSE Sample 01   Target 1    UNKNO… FAM     
#>  7     1     7    NA NA            NA    NA          NA          NA     NA      
#>  8     1     8     8 A8            FALSE Sample 09   Target 1    UNKNO… FAM     
#>  9     1     9     9 A9            FALSE Sample 09   Target 1    UNKNO… FAM     
#> 10     1    10    NA NA            NA    NA          NA          NA     NA      
#> # ℹ 86 more rows
#> # ℹ 23 more variables: quencher <chr>, ct <dbl>, ct_mean <dbl>, ct_sd <dbl>,
#> #   quantity <dbl>, quantity_mean <dbl>, quantity_sd <dbl>,
#> #   automatic_ct_threshold <lgl>, ct_threshold <dbl>, automatic_baseline <lgl>,
#> #   baseline_start <dbl>, baseline_end <dbl>, comments <lgl>,
#> #   y_intercept <dbl>, r_superscript_2 <dbl>, slope <dbl>, efficiency <dbl>,
#> #   positions <dbl>, name <chr>, usr_quantity <dbl>, date <date>, …
…
Calculating Library Concentration

Before we can perform quality control, we first need to calculate the
concentration of RNA library in our samples. We supply a dilution factor
to calculate the concentration of the original libraries from the
concentration of libraries in the assay (here we diluted them
1:1000).

lib_conc <- tidy_lib |> 
  pcr_lib_calc(dil_factor = 1000)

lib_conc |>
  scrub() |>
  select(sample_name, concentration)
#> # A tibble: 96 × 2
#>    sample_name concentration
#>    <chr>               <dbl>
#>  1 NA                     NA
#>  2 NA                     NA
#>  3 NA                     NA
#>  4 Standard 01            NA
#>  5 Standard 01            NA
#>  6 Standard 01            NA
#>  7 Standard 02            NA
#>  8 Standard 02            NA
#>  9 Standard 03            NA
#> 10 Standard 03            NA
#> # ℹ 86 more rows
…
#>  5 Standard 02 STANDARD            NA            NA 0.680        0.734     9.27
#>  6 Standard 03 STANDARD            NA            NA 0.0680       0.0603   12.2 
#>  7 Standard 03 STANDARD            NA            NA 0.0680       0.0603   12.2 
#>  8 Standard 03 STANDARD            NA            NA 0.0680       0.0603   12.2 
#>  9 Standard 04 STANDARD            NA            NA 0.00680      0.00568  10.6 
#> 10 Standard 04 STANDARD            NA            NA 0.00680      0.00568  10.6 
#> 11 Standard 04 STANDARD            NA            NA 0.00680      0.00568  10.6 
#> 12 Standard 05 STANDARD            NA            NA 0.000680     0.000417 13.6 
#> 13 Standard 05 STANDARD            NA            NA 0.000680     0.000417 13.6 
#> # ℹ 12 more variables: slope <dbl>, efficiency <dbl>, r_superscript_2 <dbl>,
#> #   ct <dbl>, no_po_mean <dbl>, no_po_sd <dbl>, keep <lgl>, keep_temp <lgl>,
#> #   mean_adj <dbl>, sd_adj <dbl>, quant_adj <dbl>, z <dbl>
#> 
#> $samples
#> # A tibble: 42 × 19
#> # Groups:   sample_name [16]
#>    sample_name task    quantity_mean concentration quantity quant_actual   dil
#>    <chr>       <chr>           <dbl>         <dbl>    <dbl>        <dbl> <dbl>
#>  1 Sample 06   UNKNOWN          2.04         2039.     2.06         2.06    NA
#>  2 Sample 06   UNKNOWN          2.04         2039.     2.12         2.12    NA
#>  3 Sample 06   UNKNOWN          2.04         2039.     1.94         1.94    NA
#>  4 Sample 12   UNKNOWN          1.89         1893.     1.93         1.93    NA
#>  5 Sample 12   UNKNOWN          1.89         1893.     1.88         1.88    NA
#>  6 Sample 12   UNKNOWN          1.89         1893.     1.87         1.87    NA
#>  7 Sample 04   UNKNOWN          1.69         1694.     1.62         1.62    NA
#>  8 Sample 04   UNKNOWN          1.69         1694.     1.84         1.84    NA
#>  9 Sample 04   UNKNOWN          1.69         1694.     1.62         1.62    NA
#> 10 Sample 16   UNKNOWN          1.49         1493.     1.46         1.46    NA
#> # ℹ 32 more rows
#> # ℹ 12 more variables: slope <dbl>, efficiency <dbl>, r_superscript_2 <dbl>,
#> #   ct <dbl>, no_po_mean <dbl>, no_po_sd <dbl>, keep <lgl>, keep_temp <lgl>,
#> #   mean_adj <dbl>, sd_adj <dbl>, quant_adj <dbl>, z <dbl>
…
#> 15 Sample 15           0.713     0.713
#> 16 Sample 16           1.49      1.42 
#> 
#> $standard_summary
#> # A tibble: 5 × 4
#>   sample_name   dil quantity_mean quant_actual
#>   <chr>       <dbl>         <dbl>        <dbl>
#> 1 Standard 01  0         6.80         6.80    
#> 2 Standard 02  9.27      0.680        0.734   
#> 3 Standard 03 12.2       0.0680       0.0603  
#> 4 Standard 04 10.6       0.00680      0.00568 
#> 5 Standard 05 13.6       0.000680     0.000417
#> 
#> $outliers
#> # A tibble: 55 × 19
#> # Groups:   sample_name [21]
#>    sample_name task     quantity_mean concentration quantity quant_actual   dil
#>    <chr>       <chr>            <dbl>         <dbl>    <dbl>        <dbl> <dbl>
#>  1 Standard 01 STANDARD            NA            NA  6.80         6.80     0   
#>  2 Standard 01 STANDARD            NA            NA  6.80         6.80     0   
#>  3 Standard 01 STANDARD            NA            NA  6.80         6.80     0   
#>  4 Standard 02 STANDARD            NA            NA  0.680        0.734    9.27
#>  5 Standard 02 STANDARD            NA            NA  0.680        0.734    9.27
#>  6 Standard 03 STANDARD            NA            NA  0.0680       0.0603  12.2 
#>  7 Standard 03 STANDARD            NA            NA  0.0680       0.0603  12.2 
#>  8 Standard 03 STANDARD            NA            NA  0.0680       0.0603  12.2 
#>  9 Standard 04 STANDARD            NA            NA  0.00680      0.00568 10.6 
#> 10 Standard 04 STANDARD            NA            NA  0.00680      0.00568 10.6 
#> # ℹ 45 more rows
#> # ℹ 12 more variables: slope <dbl>, efficiency <dbl>, r_superscript_2 <dbl>,
#> #   ct <dbl>, no_po_mean <dbl>, no_po_sd <dbl>, keep <lgl>, keep_temp <lgl>,
#> #   mean_adj <dbl>, sd_adj <dbl>, quant_adj <dbl>, z <dbl>
…
